…
## <span style="color:#88398A">Sobre las filas:  `arrange()` </span>

```{r echo=TRUE, eval=FALSE}
arrange(mtcars, desc(mpg) )

# A tibble: 32 x 11
     mpg   cyl  disp    hp  drat    wt  qsec    vs    am  gear  carb
   <dbl> <int> <dbl> <int> <dbl> <dbl> <dbl> <int> <int> <int> <int>
 1  33.9     4  71.1    65  4.22 1.835 19.90     1     1     4     1
 2  32.4     4  78.7    66  4.08 2.200 19.47     1     1     4     1
 3  30.4     4  75.7    52  4.93 1.615 18.52     1     1     4     2
 4  30.4     4  95.1   113  3.77 1.513 16.90     1     1     5     2
 5  27.3     4  79.0    66  4.08 1.935 18.90     1     1     4     1
 6  26.0     4 120.3    91  4.43 2.140 16.70     0     1     5     2
 7  24.4     4 146.7    62  3.69 3.190 20.00     1     0     4     2
 8  22.8     4 108.0    93  3.85 2.320 18.61     1     1     4     1
 9  22.8     4 140.8    95  3.92 3.150 22.90     1     0     4     2
10  21.5     4 120.1    97  3.70 2.465 20.01     1     0     3     1
# ... with 22 more rows
…
